          10  bits in following OptMaxBin table
           0  0.6178228    
           1  0.8443232    
           2  0.7270100    
           3  0.8675374    
           4  0.5884753    
           5  0.8007810    
           6  0.9517371    
           7  0.9508799    
           8  0.0000000E+00
           9  1.3114626E-02
          10  0.2252184    
          11  0.1998733    
          12  4.8391470E-03
          13  1.5377719E-02
          14  5.1747886E-03
          15  4.1789184E-03
          16  0.6247763    
          17  0.8464832    
          18  0.8749120    
          19  0.9037426    
          20  0.4334349    
          21  0.5784162    
          22  0.8157287    
          23  0.8100156    
          24  1.4651194E-02
          25  1.9782862E-02
          26  9.0621740E-02
          27  8.8737436E-02
          28  8.2569355E-03
          29  5.7053072E-03
          30  3.1091995E-03
          31  5.1835659E-03
          32  0.6258657    
          33  0.5383860    
          34  0.2621219    
          35  0.4250245    
          36  0.9494417    
          37  0.9822974    
          38  0.9105220    
          39  0.9110556    
          40  0.1686119    
          41  0.1540859    
          42  0.1285513    
          43  0.1077368    
          44  6.6599786E-02
          45  5.3372204E-02
          46  6.5139778E-02
          47  6.2225163E-02
          48  0.8138433    
          49  0.6631526    
          50  0.3751881    
          51  0.5196970    
          52  0.9551167    
          53  0.9125518    
          54  0.9429934    
          55  0.9432145    
          56  5.6218583E-02
          57  2.4937341E-02
          58  9.0769120E-02
          59  7.8246772E-02
          60  4.8321813E-02
          61  5.2635267E-02
          62  5.3124100E-02
          63  5.1327083E-02
          64  0.6734231    
          65  0.9398012    
          66  0.7889491    
          67  0.7466010    
          68  0.2120320    
          69  3.9934475E-02
          70  8.1878677E-02
          71  0.0000000E+00
          72  4.9911579E-03
          73  1.0733261E-02
          74  8.7138638E-03
          75  6.5963636E-03
          76  4.4620568E-03
          77  4.0728805E-04
          78  4.5058266E-03
          79  5.2244505E-03
          80  4.6209555E-02
          81  0.8469736    
          82  0.4983593    
          83  0.4004698    
          84  0.5282829    
          85  0.5071727    
          86  0.4214421    
          87  0.4401197    
          88  8.6268912E-05
          89  4.6841060E-06
          90  7.6659227E-04
          91  7.1616948E-04
          92  5.2924599E-02
          93  4.6887890E-02
          94  4.1624822E-02
          95  4.8728045E-02
          96  0.8049821    
          97  0.7387077    
          98  0.1228619    
          99  8.8792723E-03
         100  7.6754712E-03
         101  7.3193596E-03
         102  2.8423732E-03
         103  3.2501528E-03
         104  5.9049060E-03
         105  7.1439110E-03
         106  7.1832474E-05
         107  6.0562388E-06
         108  2.1798260E-04
         109  1.8645295E-04
         110  2.1233000E-05
         111  4.1901050E-05
         112  0.3386936    
         113  3.7914932E-02
         114  9.9258877E-02
         115  5.2407738E-03
         116  1.5518381E-02
         117  6.2538008E-03
         118  3.9849598E-03
         119  4.3375297E-03
         120  3.3280381E-03
         121  3.1309266E-02
         122  4.4451743E-05
         123  8.1283979E-06
         124  5.3587038E-04
         125  1.2395422E-04
         126  2.9899771E-05
         127  5.0256942E-05
         128  0.7182674    
         129  0.7811251    
         130  0.5106010    
         131  0.8228806    
         132  0.1410118    
         133  0.1985483    
         134  0.3840971    
         135  0.3786967    
         136  1.9340463E-02
         137  3.8331982E-02
         138  0.1221067    
         139  0.1133567    
         140  1.7414240E-03
         141  6.6302600E-04
         142  5.4093724E-04
         143  6.3132518E-04
         144  0.2900839    
         145  1.7244169E-02
         146  1.1730446E-02
         147  1.1379290E-02
         148  0.4056462    
         149  0.5552331    
         150  0.7650069    
         151  0.7621712    
         152  1.4234903E-02
         153  1.9030506E-02
         154  8.7379575E-02
         155  8.6651802E-02
         156  9.6182973E-04
         157  1.8502651E-04
         158  8.4292558E-05
         159  1.1961281E-04
         160  0.5533336    
         161  0.5266576    
         162  0.2762450    
         163  0.4221971    
         164  0.8959570    
         165  0.8845142    
         166  0.9121765    
         167  0.9112594    
         168  3.9485112E-02
         169  3.9853476E-02
         170  3.9250720E-02
         171  3.4851950E-02
         172  3.3985991E-02
         173  3.2455098E-02
         174  3.3760771E-02
         175  3.2582939E-02
         176  0.9054336    
         177  0.1549378    
         178  0.3584721    
         179  0.5056583    
         180  0.8929346    
         181  0.9145398    
         182  0.9081193    
         183  0.9074168    
         184  2.6636986E-02
         185  1.3960181E-02
         186  3.5899092E-02
         187  3.2680735E-02
         188  2.6729833E-02
         189  3.2605182E-02
         190  3.1456411E-02
         191  3.0597754E-02
         192  0.4058515    
         193  0.8499593    
         194  0.7390674    
         195  0.6309920    
         196  0.1983297    
         197  0.1070813    
         198  9.1184676E-02
         199  9.1016024E-02
         200  3.1916220E-03
         201  3.8948613E-03
         202  9.5428685E-03
         203  7.4675139E-03
         204  5.3562392E-03
         205  5.3721238E-03
         206  5.2649290E-03
         207  5.7656565E-03
         208  9.8739259E-02
         209  0.1585425    
         210  0.3445588    
         211  0.3667450    
         212  0.1262788    
         213  0.1042551    
         214  5.5449579E-02
         215  5.6979809E-02
         216  4.3109003E-03
         217  1.4444151E-04
         218  2.0784263E-03
         219  4.1294899E-03
         220  4.5669358E-03
         221  2.5557047E-03
         222  3.3012864E-03
         223  3.3787477E-03
         224  0.8271882    
         225  0.7562537    
         226  9.3814500E-02
         227  5.2129272E-03
         228  4.8261207E-02
         229  4.7786862E-02
         230  3.5104666E-02
         231  3.5949707E-02
         232  1.8336616E-03
         233  2.5847666E-03
         234  9.4319746E-04
         235  1.4195119E-03
         236  1.3599567E-03
         237  1.2572360E-03
         238  6.8397773E-04
         239  7.8926404E-04
         240  0.3047742    
         241  8.6576886E-02
         242  7.9415783E-02
         243  3.6595832E-03
         244  5.8408059E-02
         245  4.8448369E-02
         246  3.7480578E-02
         247  3.8207203E-02
         248  1.0386941E-03
         249  1.2256555E-02
         250  1.0109749E-03
         251  1.4123805E-03
         252  2.2166842E-03
         253  9.5637620E-04
         254  7.4750447E-04
         255  8.3606568E-04
         256  0.8871485    
         257  0.9416728    
         258  0.8672802    
         259  0.9676520    
         260  0.7831133    
         261  0.8143843    
         262  0.9716706    
         263  0.9707379    
         264  0.1063450    
         265  0.1135549    
         266  1.5354339E-02
         267  8.9279925E-03
         268  8.1802774E-03
         269  7.6201484E-03
         270  8.1642512E-03
         271  7.5291712E-03
         272  0.9041766    
         273  0.4974592    
         274  0.9638556    
         275  0.9622031    
         276  0.7410909    
         277  0.8175430    
         278  0.9789876    
         279  0.9775976    
         280  4.2832807E-02
         281  0.1525286    
         282  3.5619163E-03
         283  2.0911181E-03
         284  5.2918070E-03
         285  7.9718400E-03
         286  7.6842555E-03
         287  7.0070210E-03
         288  0.5574581    
         289  0.5783897    
         290  1.2387443E-02
         291  2.1579450E-04
         292  1.9452779E-02
         293  5.5799750E-03
         294  3.8680550E-02
         295  3.8253091E-02
         296  6.7399092E-02
         297  6.5839022E-02
         298  1.8404873E-02
         299  1.1246466E-02
         300  2.1500578E-03
         301  6.4185169E-04
         302  4.5703254E-03
         303  3.7849995E-03
         304  0.4328205    
         305  7.9877235E-02
         306  1.1013760E-02
         307  3.4050411E-04
         308  1.8471448E-02
         309  3.2110732E-02
         310  2.4954872E-02
         311  2.4758790E-02
         312  1.6235827E-02
         313  5.1648963E-02
         314  8.0254152E-03
         315  4.8519098E-03
         316  3.3958210E-07
         317  4.9302320E-04
         318  1.9328268E-03
         319  1.5833401E-03
         320  0.7850576    
         321  0.8889110    
         322  0.7283950    
         323  0.8839586    
         324  1.7242026E-02
         325  4.5327704E-02
         326  2.6120397E-03
         327  2.6252719E-03
         328  5.6692390E-03
         329  2.7547176E-03
         330  1.0256035E-02
         331  8.2270075E-03
         332  5.1922654E-04
         333  2.0923580E-03
         334  4.9618300E-04
         335  6.8054354E-04
         336  0.2650466    
         337  0.7031782    
         338  0.8092969    
         339  0.7569187    
         340  1.9454362E-02
         341  1.3010738E-02
         342  5.7448107E-03
         343  5.6969645E-03
         344  1.0899026E-03
         345  2.7284301E-03
         346  5.6704432E-03
         347  5.2073747E-03
         348  3.8609265E-03
         349  1.9828777E-03
         350  2.0711904E-03
         351  2.4411201E-03
         352  0.7509983    
         353  0.6945497    
         354  0.1657642    
         355  3.1345155E-02
         356  1.7854613E-03
         357  1.5011522E-03
         358  4.0307608E-03
         359  3.5328786E-03
         360  6.5297782E-03
         361  7.4981782E-03
         362  8.6624839E-04
         363  3.8161047E-04
         364  7.6023946E-07
         365  5.8147202E-06
         366  1.5713050E-04
         367  1.1578612E-04
         368  0.4633314    
         369  1.4162922E-02
         370  0.1356059    
         371  2.0399829E-02
         372  9.2823866E-06
         373  1.6277039E-03
         374  2.3698774E-03
         375  2.0852380E-03
         376  3.9628269E-03
         377  2.4498444E-02
         378  7.8823627E-04
         379  3.8083596E-04
         380  5.3525586E-05
         381  3.4147419E-05
         382  1.4851693E-04
         383  1.1379593E-04
         384  0.9258289    
         385  0.9111673    
         386  0.7703999    
         387  0.9227619    
         388  0.5926633    
         389  0.8757249    
         390  0.8897790    
         391  0.8809233    
         392  2.3844138E-02
         393  0.1559174    
         394  2.7272406E-03
         395  1.2322409E-03
         396  3.3489119E-05
         397  1.1940232E-02
         398  1.9891541E-03
         399  1.9002943E-03
         400  0.1867843    
         401  0.1115816    
         402  5.9313942E-02
         403  6.1944641E-02
         404  0.5505247    
         405  0.4953488    
         406  0.2415980    
         407  0.2718847    
         408  2.2172686E-02
         409  0.1136760    
         410  2.2986503E-03
         411  1.1378705E-03
         412  4.2476237E-02
         413  3.3529419E-02
         414  2.6826227E-02
         415  7.5205959E-02
         416  0.5661461    
         417  0.5753054    
         418  4.9099745E-03
         419  1.4486087E-04
         420  1.6943039E-02
         421  5.6377789E-03
         422  3.2080490E-02
         423  3.1742040E-02
         424  3.3013381E-02
         425  3.5256218E-02
         426  6.2727854E-03
         427  3.5872038E-03
         428  9.5266110E-04
         429  3.3208670E-04
         430  2.7919863E-03
         431  2.2485631E-03
         432  0.4612455    
         433  0.1964648    
         434  4.6970774E-03
         435  3.6932186E-05
         436  1.6688107E-02
         437  2.5936922E-02
         438  2.1729708E-02
         439  2.1529894E-02
         440  1.1654368E-02
         441  5.1481415E-02
         442  3.0633486E-03
         443  1.7237691E-03
         444  1.4189513E-04
         445  2.3968525E-04
         446  1.2280946E-03
         447  9.7371126E-04
         448  0.6342657    
         449  0.8722802    
         450  0.6746105    
         451  0.8589175    
         452  3.0247159E-02
         453  1.4756124E-04
         454  2.5202280E-03
         455  2.5765446E-03
         456  5.0519696E-03
         457  5.5349604E-03
         458  1.2384871E-02
         459  1.0012127E-02
         460  3.6797099E-04
         461  3.4977420E-04
         462  3.0179386E-04
         463  4.4415725E-04
         464  0.2977339    
         465  1.9191809E-03
         466  2.6266599E-02
         467  3.3854451E-02
         468  1.4818740E-03
         469  1.5583688E-04
         470  7.3637895E-04
         471  4.7529745E-04
         472  7.5242841E-03
         473  1.8702573E-05
         474  2.6219985E-03
         475  5.0343387E-03
         476  1.9656330E-04
         477  2.0508131E-05
         478  3.0248823E-06
         479  5.0656063E-06
         480  0.8566120    
         481  0.8017645    
         482  8.8884190E-02
         483  6.0387012E-03
         484  2.7240798E-04
         485  4.7824247E-05
         486  1.2637184E-03
         487  9.9756545E-04
         488  3.8520377E-03
         489  4.5087901E-03
         490  1.2418829E-04
         491  1.5979595E-05
         492  5.5689088E-05
         493  3.0647065E-05
         494  3.4369481E-05
         495  1.7145228E-05
         496  0.4686332    
         497  2.6952978E-02
         498  7.5287029E-02
         499  4.2104623E-03
         500  4.4426208E-04
         501  9.2729879E-06
         502  2.9189955E-04
         503  1.9851935E-04
         504  2.8255847E-03
         505  1.7209584E-02
         506  1.2446630E-04
         507  2.4095549E-05
         508  2.5563521E-04
         509  9.5450298E-07
         510  3.3132910E-05
         511  1.8663319E-05
         512  0.4532064    
         513  0.8449793    
         514  0.6258025    
         515  0.7987943    
         516  0.7088842    
         517  0.7603555    
         518  0.9499776    
         519  0.9496486    
         520  6.1513282E-02
         521  0.1250459    
         522  0.3135209    
         523  0.2819427    
         524  3.9484217E-03
         525  3.9368481E-03
         526  4.5815455E-03
         527  4.0672338E-03
         528  0.6832795    
         529  0.4665296    
         530  0.4065542    
         531  0.5678645    
         532  0.6879022    
         533  0.7884184    
         534  0.9792920    
         535  0.9784834    
         536  6.1551433E-02
         537  8.4921828E-04
         538  0.3818370    
         539  0.3723685    
         540  3.8384115E-03
         541  6.3581029E-03
         542  6.6903969E-03
         543  6.3441102E-03
         544  0.7379791    
         545  0.7616870    
         546  0.4528135    
         547  0.5793245    
         548  0.9197014    
         549  0.9694638    
         550  0.8684555    
         551  0.8692106    
         552  0.1664272    
         553  0.1544105    
         554  0.1423702    
         555  0.1203376    
         556  8.6011089E-02
         557  7.0952587E-02
         558  8.3720289E-02
         559  8.0477573E-02
         560  0.8108630    
         561  0.6927314    
         562  0.4865107    
         563  0.6096057    
         564  0.9281433    
         565  0.8687276    
         566  0.9113042    
         567  0.9115674    
         568  6.8587609E-02
         569  3.2810178E-02
         570  0.1078200    
         571  9.4405495E-02
         572  6.5376364E-02
         573  7.0272461E-02
         574  7.0379458E-02
         575  6.8323642E-02
         576  0.5971346    
         577  0.8996515    
         578  0.7903923    
         579  0.7615228    
         580  1.0888726E-02
         581  2.9667441E-02
         582  0.1169549    
         583  0.1333924    
         584  5.0321426E-03
         585  5.8120959E-03
         586  7.5740051E-03
         587  4.5987596E-03
         588  2.6379782E-03
         589  2.7158507E-03
         590  3.7312277E-03
         591  4.8762467E-03
         592  6.6272244E-02
         593  0.1372068    
         594  0.6862730    
         595  0.8169219    
         596  4.1083045E-02
         597  2.7771255E-02
         598  6.6357735E-03
         599  7.4399817E-03
         600  4.4519594E-03
         601  4.7223833E-03
         602  2.7761415E-02
         603  2.4705984E-02
         604  2.4089590E-03
         605  9.2620205E-04
         606  1.4038392E-03
         607  1.4792593E-03
         608  0.7935562    
         609  0.7102513    
         610  2.9501194E-02
         611  5.2347695E-03
         612  6.5308493E-03
         613  7.1441056E-03
         614  2.5339532E-03
         615  2.9466979E-03
         616  3.4302974E-03
         617  4.1673025E-03
         618  4.8621379E-05
         619  1.9468598E-04
         620  3.8118378E-04
         621  3.1404747E-04
         622  5.3548869E-05
         623  8.1882499E-05
         624  0.3432082    
         625  4.8695844E-02
         626  2.6039489E-02
         627  3.8822202E-03
         628  1.4225437E-02
         629  7.5803832E-03
         630  4.2616175E-03
         631  4.6539977E-03
         632  2.5560809E-03
         633  2.4180016E-02
         634  4.6426838E-05
         635  1.7138483E-04
         636  7.5200014E-04
         637  1.3830831E-04
         638  5.7815003E-05
         639  8.2638457E-05
         640  0.8186577    
         641  0.7703546    
         642  0.5483061    
         643  0.6986099    
         644  0.6930250    
         645  0.4419813    
         646  0.9297960    
         647  0.9527678    
         648  2.9356582E-02
         649  5.1277265E-04
         650  0.4758567    
         651  0.4735564    
         652  1.2089922E-04
         653  3.6820743E-02
         654  1.6447959E-02
         655  1.5991766E-02
         656  0.1442502    
         657  0.1683891    
         658  4.5490324E-02
         659  4.7664635E-02
         660  0.1057510    
         661  7.7334546E-02
         662  7.0780766E-04
         663  2.2055267E-03
         664  2.3056172E-02
         665  9.4917729E-02
         666  0.3079215    
         667  0.2972035    
         668  2.7608213E-03
         669  1.1485537E-03
         670  1.4560629E-03
         671  1.4548115E-03
         672  6.5889023E-02
         673  7.0168436E-02
         674  0.1486370    
         675  0.1558040    
         676  8.0970034E-02
         677  9.4423130E-02
         678  7.3160678E-02
         679  7.3261723E-02
         680  0.1203401    
         681  0.2419961    
         682  0.1359476    
         683  0.1887813    
         684  0.2237990    
         685  0.5324562    
         686  0.2271013    
         687  0.2714995    
         688  6.1231382E-02
         689  7.4315198E-02
         690  0.1538588    
         691  0.1638106    
         692  8.5074067E-02
         693  8.4168002E-02
         694  8.3503254E-02
         695  8.3511412E-02
         696  0.4334983    
         697  0.1006174    
         698  0.3002293    
         699  0.3822632    
         700  0.4806787    
         701  0.5178932    
         702  0.4385068    
         703  0.4994515    
         704  0.5764698    
         705  0.8996922    
         706  0.7856145    
         707  0.7607455    
         708  9.2702754E-02
         709  3.1806733E-02
         710  2.6586358E-02
         711  2.6526853E-02
         712  4.8228023E-03
         713  5.6359111E-03
         714  1.2190913E-02
         715  9.8541426E-03
         716  2.7477960E-03
         717  2.7420877E-03
         718  2.6398588E-03
         719  3.0227541E-03
         720  0.1999238    
         721  7.2102502E-02
         722  0.2691435    
         723  0.2924209    
         724  4.4802938E-02
         725  3.1257056E-02
         726  8.9169042E-03
         727  9.7468263E-03
         728  6.2853144E-03
         729  5.1190987E-06
         730  3.1714123E-03
         731  5.9482288E-03
         732  2.2664920E-03
         733  8.5672608E-04
         734  1.3579541E-03
         735  1.4075981E-03
         736  0.8597876    
         737  0.8189718    
         738  9.5908396E-02
         739  9.8703811E-03
         740  3.1756109E-03
         741  5.8507049E-03
         742  7.0595968E-04
         743  9.9802844E-04
         744  3.1645806E-03
         745  3.8975950E-03
         746  8.8163222E-05
         747  2.5961717E-04
         748  4.4031252E-04
         749  3.8032627E-04
         750  6.0505899E-05
         751  8.8643246E-05
         752  0.4334558    
         753  5.1122017E-02
         754  7.9447120E-02
         755  6.3174819E-03
         756  1.1232567E-02
         757  6.7450330E-03
         758  3.0807788E-03
         759  3.4766495E-03
         760  2.4367757E-03
         761  1.9539855E-02
         762  8.6991728E-05
         763  2.3397100E-04
         764  8.0797344E-04
         765  1.1443950E-04
         766  6.3012609E-05
         767  8.6985077E-05
         768  0.8690655    
         769  0.9345197    
         770  0.8265237    
         771  0.9529790    
         772  0.6611975    
         773  0.6929991    
         774  0.9090179    
         775  0.9067667    
         776  6.9450684E-02
         777  8.0383636E-02
         778  5.1970268E-03
         779  2.1356957E-03
         780  3.3112897E-03
         781  3.2693178E-03
         782  3.5121208E-03
         783  3.1542219E-03
         784  0.7954041    
         785  0.4989759    
         786  0.9191101    
         787  0.9069584    
         788  0.5980251    
         789  0.6966207    
         790  0.9454110    
         791  0.9431623    
         792  3.1707369E-02
         793  0.1225747    
         794  7.0584315E-04
         795  1.9977600E-04
         796  1.9882226E-03
         797  3.7520863E-03
         798  3.4943623E-03
         799  3.1069370E-03
         800  0.5598160    
         801  0.5856100    
         802  1.7826580E-02
         803  2.0868410E-04
         804  2.4222196E-05
         805  2.2043968E-03
         806  3.2503267E-03
         807  3.1197155E-03
         808  3.8239788E-02
         809  3.8521990E-02
         810  6.9655394E-03
         811  3.3858498E-03
         812  2.0172405E-04
         813  2.6204732E-06
         814  1.3013800E-03
         815  9.5298304E-04
         816  0.3724701    
         817  0.2322344    
         818  1.3171839E-02
         819  1.9917430E-04
         820  1.3171830E-05
         821  2.2203734E-03
         822  7.2681223E-04
         823  6.8051525E-04
         824  1.0058776E-02
         825  4.4060525E-02
         826  2.7452495E-03
         827  1.2717738E-03
         828  5.2779983E-04
         829  2.2417037E-06
         830  3.9586605E-04
         831  2.6547880E-04
         832  0.7852010    
         833  0.8925865    
         834  0.7226970    
         835  0.8789661    
         836  1.8784266E-02
         837  4.2830240E-02
         838  3.7048035E-03
         839  3.7201319E-03
         840  5.3113429E-03
         841  2.7097608E-03
         842  9.9468660E-03
         843  7.9782000E-03
         844  5.9456658E-04
         845  2.0215083E-03
         846  5.6279375E-04
         847  7.4980903E-04
         848  0.2442737    
         849  0.7291071    
         850  0.7784306    
         851  0.7183311    
         852  2.0597845E-02
         853  1.4054943E-02
         854  6.4953561E-03
         855  6.4508105E-03
         856  1.0534414E-03
         857  2.6855657E-03
         858  5.6026676E-03
         859  5.1419926E-03
         860  3.8612410E-03
         861  1.9838340E-03
         862  2.0703126E-03
         863  2.4391187E-03
         864  0.7537556    
         865  0.6969465    
         866  0.1633021    
         867  3.0885758E-02
         868  4.0853836E-04
         869  2.6738291E-04
         870  1.6878429E-03
         871  1.3829771E-03
         872  5.7278010E-03
         873  6.6418988E-03
         874  5.7265564E-04
         875  2.1084811E-04
         876  6.2748763E-06
         877  8.1009557E-07
         878  8.6067652E-05
         879  5.6434266E-05
         880  0.4526374    
         881  1.7686401E-02
         882  0.1346356    
         883  2.0352850E-02
         884  3.0291273E-04
         885  2.8628673E-04
         886  7.0397230E-04
         887  5.5805768E-04
         888  3.5024041E-03
         889  2.2590723E-02
         890  5.1864225E-04
         891  2.1442259E-04
         892  1.1592630E-04
         893  7.6596061E-06
         894  7.9860802E-05
         895  5.5295412E-05
         896  0.9257087    
         897  0.9046011    
         898  0.7537721    
         899  0.9114183    
         900  0.5003496    
         901  0.8233909    
         902  0.8145509    
         903  0.8015309    
         904  2.0445978E-02
         905  0.1121292    
         906  7.7073555E-04
         907  1.4149626E-04
         908  9.8947112E-06
         909  6.6384412E-03
         910  9.5250533E-04
         911  8.8809116E-04
         912  0.1879083    
         913  3.6403131E-02
         914  7.3090516E-02
         915  7.5509556E-02
         916  0.5699521    
         917  0.5141224    
         918  0.2615219    
         919  0.2960229    
         920  1.9517276E-02
         921  8.3908610E-02
         922  5.3652748E-04
         923  1.1243352E-04
         924  5.6456666E-02
         925  4.6095166E-02
         926  2.5622305E-02
         927  9.3430884E-02
         928  0.5544472    
         929  0.5676355    
         930  5.1199244E-03
         931  7.3640206E-04
         932  8.1685603E-06
         933  1.5599815E-03
         934  2.1326279E-03
         935  2.0348313E-03
         936  2.0287212E-02
         937  2.2513289E-02
         938  2.0641098E-03
         939  8.1533106E-04
         940  1.6148228E-05
         941  9.2446835E-06
         942  7.2455266E-04
         943  4.9275195E-04
         944  0.4027843    
         945  0.3180700    
         946  4.3629813E-03
         947  4.6234601E-04
         948  1.3687685E-05
         949  1.2998664E-03
         950  5.3408282E-04
         951  4.9032102E-04
         952  7.6298011E-03
         953  4.1707192E-02
         954  8.6122385E-04
         955  2.9922524E-04
         956  9.6895336E-04
         957  2.1112413E-05
         958  2.1680834E-04
         959  1.2927897E-04
         960  0.6319484    
         961  0.8694859    
         962  0.6680284    
         963  0.8531767    
         964  2.9826647E-02
         965  1.0349016E-03
         966  3.5718516E-03
         967  3.6208725E-03
         968  4.5464518E-03
         969  5.0891615E-03
         970  1.2019523E-02
         971  9.7289123E-03
         972  4.6573082E-04
         973  4.4448895E-04
         974  3.5795823E-04
         975  5.0358230E-04
         976  0.3166527    
         977  4.3143620E-05
         978  4.5152228E-02
         979  5.6911226E-02
         980  3.5315673E-03
         981  1.1651184E-03
         982  1.5213259E-05
         983  6.5758638E-07
         984  6.0546040E-03
         985  1.8975075E-05
         986  4.9759587E-03
         987  1.0318425E-02
         988  3.3986781E-04
         989  2.7003912E-09
         990  3.5716163E-05
         991  4.2966574E-05
         992  0.8556229    
         993  0.8003451    
         994  8.9184023E-02
         995  6.0922825E-03
         996  6.6794669E-06
         997  1.5982726E-04
         998  2.7169110E-04
         999  1.5906218E-04
        1000  3.4399775E-03
        1001  4.0611988E-03
        1002  5.6012683E-05
        1003  3.8072525E-07
        1004  1.0580787E-04
        1005  6.9603739E-05
        1006  9.9352937E-06
        1007  2.0886093E-06
        1008  0.4573121    
        1009  3.0153787E-02
        1010  7.5920209E-02
        1011  4.2534987E-03
        1012  1.5087376E-03
        1013  2.8521384E-04
        1014  4.0965124E-06
        1015  2.4395784E-05
        1016  2.5369665E-03
        1017  1.5828572E-02
        1018  5.6974110E-05
        1019  2.3733971E-06
        1020  3.5396664E-04
        1021  2.8389629E-06
        1022  9.2740229E-06
        1023  2.6525688E-06
  
